{
  "restartable": "rs",
  "verbose": true,
  "ignore": [
    ".git", 
    "_postgresql_database/**",
    "dist"
  ],
  "watch": [
    "src/**/**",
    "src/server.ts",
    "src/shared/schema/**"
  ]
}